{
  "code": "0",
  "result": {
    "page": 5,
    "page_size": 10,
    "total_count": 85,
    "page_count": 9,
    "list": [
      {
        "id": 1,
        "order_sn": "T180181684",
        "bike_sn": "800116090",
        "user_id": 908352,
        "user_name": "秦芳",
        "mobile": "17332488677",
        "distance": 2000,
        "total_time": 4000,
        "status": 1,
        "start_time": "1988-12-14 23:04:22",
        "end_time": "2006-02-16 22:09:45",
        "total_fee": 1000,
        "user_pay": 300
      },
      {
        "id": 2,
        "order_sn": "T180676595",
        "bike_sn": "800116090",
        "user_id": 908352,
        "user_name": "林勇",
        "mobile": "10116998768",
        "distance": 2000,
        "total_time": 4000,
        "status": 2,
        "start_time": "2007-05-10 18:33:48",
        "end_time": "1990-03-25 21:40:35",
        "total_fee": 1000,
        "user_pay": 300
      },
      {
        "id": 3,
        "order_sn": "T180719474",
        "bike_sn": "800116090",
        "user_id": 908352,
        "user_name": "赖洋",
        "mobile": "14482813330",
        "distance": 2000,
        "total_time": 4000,
        "status": 2,
        "start_time": "1979-08-25 19:43:57",
        "end_time": "1970-05-27 22:20:21",
        "total_fee": 1000,
        "user_pay": 300
      },
      {
        "id": 4,
        "order_sn": "T180613948",
        "bike_sn": "800116090",
        "user_id": 908352,
        "user_name": "杜平",
        "mobile": "18860208888",
        "distance": 2000,
        "total_time": 4000,
        "status": 1,
        "start_time": "2012-04-28 10:32:54",
        "end_time": "1997-07-07 16:01:39",
        "total_fee": 1000,
        "user_pay": 300
      },
      {
        "id": 5,
        "order_sn": "T180522738",
        "bike_sn": "800116090",
        "user_id": 908352,
        "user_name": "谢丽",
        "mobile": "17352643249",
        "distance": 2000,
        "total_time": 4000,
        "status": 2,
        "start_time": "1970-10-15 07:12:42",
        "end_time": "1996-09-25 04:40:26",
        "total_fee": 1000,
        "user_pay": 300
      },
      {
        "id": 6,
        "order_sn": "T180525298",
        "bike_sn": "800116090",
        "user_id": 908352,
        "user_name": "梁娟",
        "mobile": "11687765665",
        "distance": 2000,
        "total_time": 4000,
        "status": 2,
        "start_time": "1990-03-21 07:14:59",
        "end_time": "1977-11-10 18:53:46",
        "total_fee": 1000,
        "user_pay": 300
      },
      {
        "id": 7,
        "order_sn": "T180838768",
        "bike_sn": "800116090",
        "user_id": 908352,
        "user_name": "崔娜",
        "mobile": "18213742760",
        "distance": 2000,
        "total_time": 4000,
        "status": 1,
        "start_time": "1989-04-20 21:28:19",
        "end_time": "1988-01-01 15:34:13",
        "total_fee": 1000,
        "user_pay": 300
      },
      {
        "id": 8,
        "order_sn": "T180262394",
        "bike_sn": "800116090",
        "user_id": 908352,
        "user_name": "韩刚",
        "mobile": "14277538487",
        "distance": 2000,
        "total_time": 4000,
        "status": 1,
        "start_time": "1975-03-20 08:18:52",
        "end_time": "1990-07-16 05:01:33",
        "total_fee": 1000,
        "user_pay": 300
      },
      {
        "id": 9,
        "order_sn": "T180246539",
        "bike_sn": "800116090",
        "user_id": 908352,
        "user_name": "贺秀英",
        "mobile": "13115558832",
        "distance": 2000,
        "total_time": 4000,
        "status": 1,
        "start_time": "1970-06-26 13:51:34",
        "end_time": "2016-11-25 05:56:36",
        "total_fee": 1000,
        "user_pay": 300
      },
      {
        "id": 10,
        "order_sn": "T180865740",
        "bike_sn": "800116090",
        "user_id": 908352,
        "user_name": "方杰",
        "mobile": "18651910559",
        "distance": 2000,
        "total_time": 4000,
        "status": 1,
        "start_time": "2008-09-16 15:11:50",
        "end_time": "2018-03-30 23:51:52",
        "total_fee": 1000,
        "user_pay": 300
      }
    ]
  }
}